{
  "project_info": {
    "project_number": "129505135707",
    "firebase_url": "https://lte-drivers-app.firebaseio.com",
    "project_id": "lte-drivers-app",
    "storage_bucket": "lte-drivers-app.appspot.com"
  },
  "client": [
    {
      "client_info": {
        "mobilesdk_app_id": "1:129505135707:android:6c04c1532940892cce837e",
        "android_client_info": {
          "package_name": "com.example.paqueteslte"
        }
      },
      "oauth_client": [
        {
          "client_id": "129505135707-p8k7fobu4d2i3im0tr9la42ishorr584.apps.googleusercontent.com",
          "client_type": 3
        }
      ],
      "api_key": [
        {
          "current_key": "AIzaSyBsTuyHKlM2FXJ-0YS93OMJiLzNNWK07-Y"
        }
      ],
      "services": {
        "appinvite_service": {
          "other_platform_oauth_client": [
            {
              "client_id": "129505135707-p8k7fobu4d2i3im0tr9la42ishorr584.apps.googleusercontent.com",
              "client_type": 3
            }
          ]
        }
      }
    }
  ],
  "configuration_version": "1"
}